<?xml version="1.0"?>
<svg xmlns="http://www.w3.org/2000/svg" xmlns:xlink="http://www.w3.org/1999/xlink" xmlns:svgjs="http://svgjs.com/svgjs" version="1.1" width="512" height="512" x="0" y="0" viewBox="0 0 493.181 493.181" style="enable-background:new 0 0 512 512" xml:space="preserve" class=""><g transform="matrix(0.7999999999999998,0,0,0.7999999999999999,49.31815490722656,49.318074703216524)">
<g xmlns="http://www.w3.org/2000/svg">
	<g>
		<path d="M487.391,454.135c-0.002-0.006-0.003-0.012-0.005-0.018L367.298,5.925c-1.144-4.256-5.516-6.786-9.776-5.656    L249.314,29.261c-1.484,0.44-2.804,1.312-3.792,2.504V14.589c0-4.418-3.582-8-8-8h-224c-4.418,0-8,3.582-8,8v464    c0,4.418,3.582,8,8,8h224c4.418,0,8-3.582,8-8V46.013l118.224,441.24c0.938,3.497,4.107,5.928,7.728,5.928    c0.691-0.005,1.379-0.096,2.048-0.272l108.184-28.992C485.977,462.786,488.522,458.406,487.391,454.135z M117.522,470.589h-96    v-448h96V470.589z M229.522,470.589h-96v-448h96V470.589z M377.13,475.389L261.186,42.645l92.728-24.856l115.944,432.744    L377.13,475.389z" fill="#ffffff" data-original="#000000" style="" class=""/>
	</g>
</g>
<g xmlns="http://www.w3.org/2000/svg">
	<g>
		<path d="M93.522,54.589h-48c-4.418,0-8,3.582-8,8s3.582,8,8,8h48c4.418,0,8-3.582,8-8S97.94,54.589,93.522,54.589z" fill="#ffffff" data-original="#000000" style="" class=""/>
	</g>
</g>
<g xmlns="http://www.w3.org/2000/svg">
	<g>
		<path d="M93.522,86.589h-48c-4.418,0-8,3.582-8,8s3.582,8,8,8h48c4.418,0,8-3.582,8-8S97.94,86.589,93.522,86.589z" fill="#ffffff" data-original="#000000" style="" class=""/>
	</g>
</g>
<g xmlns="http://www.w3.org/2000/svg">
	<g>
		<path d="M205.522,54.589h-48c-4.418,0-8,3.582-8,8s3.582,8,8,8h48c4.418,0,8-3.582,8-8S209.94,54.589,205.522,54.589z" fill="#ffffff" data-original="#000000" style="" class=""/>
	</g>
</g>
<g xmlns="http://www.w3.org/2000/svg">
	<g>
		<path d="M205.522,86.589h-48c-4.418,0-8,3.582-8,8s3.582,8,8,8h48c4.418,0,8-3.582,8-8S209.94,86.589,205.522,86.589z" fill="#ffffff" data-original="#000000" style="" class=""/>
	</g>
</g>
<g xmlns="http://www.w3.org/2000/svg">
	<g>
		<path d="M349.038,60.73c-1.029-4.297-5.347-6.946-9.643-5.917c-0.14,0.034-0.279,0.071-0.417,0.112l-46.4,12.416    c-4.273,1.122-6.828,5.496-5.706,9.769s5.496,6.828,9.769,5.706c0.024-0.006,0.048-0.013,0.073-0.019l46.408-12.424    C347.419,69.344,350.067,65.027,349.038,60.73z" fill="#ffffff" data-original="#000000" style="" class=""/>
	</g>
</g>
<g xmlns="http://www.w3.org/2000/svg">
	<g>
		<path d="M357.122,91.485c-1.144-4.268-5.532-6.8-9.8-5.656h-0.032l-46.36,12.424c-4.273,1.122-6.828,5.496-5.706,9.769    s5.496,6.828,9.769,5.706c0.024-0.006,0.048-0.013,0.073-0.019l46.4-12.424C355.734,100.141,358.266,95.753,357.122,91.485z" fill="#ffffff" data-original="#000000" style="" class=""/>
	</g>
</g>
<g xmlns="http://www.w3.org/2000/svg">
	<g>
		<path d="M435.727,385.102c-1.155-4.234-5.504-6.747-9.749-5.633l-46.4,12.424c-4.268,1.142-6.802,5.528-5.66,9.796    c0.937,3.5,4.109,5.933,7.732,5.932h0.032c0.699-0.001,1.396-0.092,2.072-0.272l46.36-12.424    C434.376,393.763,436.889,389.365,435.727,385.102z" fill="#ffffff" data-original="#000000" style="" class=""/>
	</g>
</g>
<g xmlns="http://www.w3.org/2000/svg">
	<g>
		<path d="M444.079,416.014c-1.155-4.234-5.504-6.747-9.749-5.633l-46.408,12.424c-4.268,1.142-6.802,5.528-5.66,9.796    c0.937,3.5,4.109,5.933,7.732,5.932c0.7,0.001,1.397-0.093,2.072-0.28l46.4-12.416    C442.728,424.675,445.241,420.277,444.079,416.014z" fill="#ffffff" data-original="#000000" style="" class=""/>
	</g>
</g>
<g xmlns="http://www.w3.org/2000/svg">
	<g>
		<path d="M205.522,390.589h-48c-4.418,0-8,3.582-8,8s3.582,8,8,8h48c4.418,0,8-3.582,8-8S209.94,390.589,205.522,390.589z" fill="#ffffff" data-original="#000000" style="" class=""/>
	</g>
</g>
<g xmlns="http://www.w3.org/2000/svg">
	<g>
		<path d="M205.522,422.589h-48c-4.418,0-8,3.582-8,8s3.582,8,8,8h48c4.418,0,8-3.582,8-8S209.94,422.589,205.522,422.589z" fill="#ffffff" data-original="#000000" style="" class=""/>
	</g>
</g>
<g xmlns="http://www.w3.org/2000/svg">
	<g>
		<path d="M93.522,390.589h-48c-4.418,0-8,3.582-8,8s3.582,8,8,8h48c4.418,0,8-3.582,8-8S97.94,390.589,93.522,390.589z" fill="#ffffff" data-original="#000000" style="" class=""/>
	</g>
</g>
<g xmlns="http://www.w3.org/2000/svg">
	<g>
		<path d="M93.522,422.589h-48c-4.418,0-8,3.582-8,8s3.582,8,8,8h48c4.418,0,8-3.582,8-8S97.94,422.589,93.522,422.589z" fill="#ffffff" data-original="#000000" style="" class=""/>
	</g>
</g>
<g xmlns="http://www.w3.org/2000/svg">
</g>
<g xmlns="http://www.w3.org/2000/svg">
</g>
<g xmlns="http://www.w3.org/2000/svg">
</g>
<g xmlns="http://www.w3.org/2000/svg">
</g>
<g xmlns="http://www.w3.org/2000/svg">
</g>
<g xmlns="http://www.w3.org/2000/svg">
</g>
<g xmlns="http://www.w3.org/2000/svg">
</g>
<g xmlns="http://www.w3.org/2000/svg">
</g>
<g xmlns="http://www.w3.org/2000/svg">
</g>
<g xmlns="http://www.w3.org/2000/svg">
</g>
<g xmlns="http://www.w3.org/2000/svg">
</g>
<g xmlns="http://www.w3.org/2000/svg">
</g>
<g xmlns="http://www.w3.org/2000/svg">
</g>
<g xmlns="http://www.w3.org/2000/svg">
</g>
<g xmlns="http://www.w3.org/2000/svg">
</g>
</g></svg>
